{
   "datetime": 1588343622,
   "donate_url": "https://www.paypal.me/Dobsgw",
   "error": false,
   "filehash": "7efa9aed26a675570c231104177000da",
   "filename": "EvolutionX_4.20.2_sagit-10.0-20200501-1435-OFFICIAL.zip",
   "forum_url": "https://forum.xda-developers.com/mi-6/development/rom-evolution-x-4-20-2-sagit-t4089445",
   "id": "5cca247a5f1ba9944139b65daddea2a6ab24368c0fb785b18a627c4d0862a09a",
   "maintainer": "Dobgsw",
   "maintainer_url": "https://forum.xda-developers.com/member.php?u=7144653",
   "news_url": "https://t.me/EvolutionXOfficial",
   "size": 1433533511,
   "telegram_username": "Dobsgw",
   "url": "https://sourceforge.net/projects/evolution-x/files/sagit/EvolutionX_4.20.2_sagit-10.0-20200501-1435-OFFICIAL.zip/download",
   "version": "Ten",
   "website_url": "https://evolution-x.org"
}